Transcriptomics Practical
…
Data Frame Objects

The type of object we created as psen2VsWT is known as a data.frame. These are very similar to an SQL table and are effectively the R equivalent to a spreadsheet. There are a few rules about them though:

They must have column names

Each column must contain the same type of data

If there were any blank cells (there aren’t) these would have been loaded as NA which is R’s way of encoding missing values

We can actually preview the object just by typing it’s name

psen2VsWT

# A tibble: 16,021 × 15
   gene_id    gene_name  logFC logCPM   PValue      FDR chromosome  start    end
   <chr>      <chr>      <dbl>  <dbl>    <dbl>    <dbl> <chr>       <dbl>  <dbl>
 1 ENSDARG00… zgc:1229…  1.42    6.15 2.55e-23 4.09e-19 chr21      5.17e6 5.17e6
 2 ENSDARG00… nr4a1      1.96    2.88 3.47e-20 2.78e-16 chr23      3.21e7 3.22e7
 3 ENSDARG00… tsc22d3    1.21    6.52 1.76e-16 9.39e-13 chr14      2.80e7 2.80e7
 4 ENSDARG00… cipca     -0.974   4.67 2.58e-16 1.03e-12 chr17      4.48e7 4.48e7
 5 ENSDARG00… BX247868… -1.29    3.85 4.07e-16 1.30e-12 chr9       4.20e7 4.20e7
 6 ENSDARG00… cbr1       1.62    4.57 6.74e-15 1.80e-11 chr1       4.72e7 4.72e7
 7 ENSDARG00… plk2b      1.14    5.21 3.21e-14 7.34e-11 chr8       1.71e7 1.71e7
 8 ENSDARG00… upf3a     -1.43    7.50 8.51e-14 1.70e-10 chr9       3.49e7 3.49e7
 9 ENSDARG00… si:ch211… -1.20    5.39 1.34e-13 2.38e-10 chr8       4.64e7 4.64e7
10 ENSDARG00… spen      -0.819   8.40 1.53e-13 2.46e-10 chr23      2.44e7 2.45e7
# ℹ 16,011 more rows
# ℹ 6 more variables: gene_biotype <chr>, description <chr>, entrezid <chr>,
#   gc_content <dbl>, length <dbl>, LR <dbl>
…
## Select the first 3 rows by placing the numbers before the comma
psen2VsWT[1:3, ]

We can select columns by placing our selection after the comma.

## Select the first 3 columns by placing our selection after the comma
psen2VsWT[, 1:3]

Unlike rows (which have no useful names in a tibble), we can also select columns by name

## Select the first column by position
psen2VsWT[, 1]

# A tibble: 16,021 × 1
   gene_id           
   <chr>             
 1 ENSDARG00000004187
 2 ENSDARG00000000796
 3 ENSDARG00000075666
 4 ENSDARG00000075397
 5 ENSDARG00000095301
 6 ENSDARG00000036587
 7 ENSDARG00000019130
 8 ENSDARG00000069297
 9 ENSDARG00000077087
10 ENSDARG00000074245
# ℹ 16,011 more rows

## Select the first column by name
psen2VsWT[, "gene_id"]

# A tibble: 16,021 × 1
   gene_id           
   <chr>             
 1 ENSDARG00000004187
 2 ENSDARG00000000796
 3 ENSDARG00000075666
 4 ENSDARG00000075397
 5 ENSDARG00000095301
 6 ENSDARG00000036587
 7 ENSDARG00000019130
 8 ENSDARG00000069297
 9 ENSDARG00000077087
10 ENSDARG00000074245
# ℹ 16,011 more rows
…
